rtl/register_bank/build/vcd/register_bank_tb.vcd
$date
	Sat Jun 13 16:17:36 2026
$end
$version
	Icarus Verilog
$end
$timescale
	1ps
$end
$scope module register_bank_tb $end
$var wire 16 ! rdata [15:0] $end
$var wire 1 " addr_valid $end
$var parameter 2 # COIL $end
$var parameter 32 $ COIL_COUNT $end
$var parameter 2 % DISCRETE $end
$var parameter 32 & DISCRETE_COUNT $end
$var parameter 2 ' HOLDING $end
$var parameter 32 ( HOLDING_COUNT $end
$var parameter 2 ) INPUT $end
$var parameter 32 * INPUT_COUNT $end
$var reg 16 + addr [15:0] $end
$var reg 1 , clk $end
$var reg 2 - regtype [1:0] $end
$var reg 1 . rstb $end
$var reg 16 / wdata [15:0] $end
$var reg 1 0 wen $end
$var integer 32 1 fail_cnt [31:0] $end
$var integer 32 2 pass_cnt [31:0] $end
$scope module dut $end
$var wire 16 3 addr [15:0] $end
$var wire 1 , clk $end
$var wire 2 4 regtype [1:0] $end
$var wire 1 . rstb $end
$var wire 16 5 wdata [15:0] $end
$var wire 1 0 wen $end
$var parameter 2 6 COIL $end
$var parameter 32 7 COIL_COUNT $end
$var parameter 2 8 DISCRETE $end
$var parameter 32 9 DISCRETE_COUNT $end
$var parameter 2 : HOLDING $end
$var parameter 32 ; HOLDING_COUNT $end
$var parameter 2 < INPUT $end
$var parameter 32 = INPUT_COUNT $end
$var reg 1 " addr_valid $end
$var reg 64 > coils [63:0] $end
$var reg 64 ? discrete_inputs [63:0] $end
$var reg 16 @ rdata [15:0] $end
$var integer 32 A i [31:0] $end
$upscope $end
$scope task check_addr_valid $end
$var reg 16 B a [15:0] $end
$var reg 1 C expected $end
$var reg 128 D label [127:0] $end
$var reg 2 E rt [1:0] $end
$upscope $end
$scope task check_read $end
$var reg 16 F a [15:0] $end
$var reg 16 G expected [15:0] $end
$var reg 128 H label [127:0] $end
$var reg 2 I rt [1:0] $end
$upscope $end
$scope task write_reg $end
$var reg 16 J a [15:0] $end
$var reg 16 K d [15:0] $end
$var reg 2 L rt [1:0] $end
$upscope $end
$upscope $end
$enddefinitions $end
$comment Show the parameter values. $end
$dumpall
b1000000 =
b11 <
b1000000 ;
b10 :
b1000000 9
b1 8
b1000000 7
b0 6
b1000000 *
b11 )
b1000000 (
b10 '
b1000000 &
b1 %
b1000000 $
b0 #
$end
#0
$dumpvars
bx L
bx K
bx J
bx I
bx H
bx G
bx F
bx E
bx D
xC
bx B
b1000000 A
b0 @
b0 ?
b0 >
b0 5
b0 4
b0 3
b0 2
b0 1
00
b0 /
0.
b0 -
0,
b0 +
1"
b0 !
$end
#5000
b1000000 A
1,
#10000
0,
#15000
1.
1,
#20000
0,
#25000
b1010101111001101 K
b1010 J
b10 L
1,
#30000
0,
#35000
10
b1010101111001101 /
b1010101111001101 5
b1010 +
b1010 3
b10 -
b10 4
1,
#40000
0,
#45000
b1010101111001101 !
b1010101111001101 @
00
b110100001101111011011000110010001101001011011100110011101011011001100010011000001011101 H
b1010101111001101 G
b1010 F
b10 I
1,
#46000
b1 K
b101 J
b0 L
b1 2
#50000
0,
#55000
b0 !
b0 @
10
b1 /
b1 5
b101 +
b101 3
b0 -
b0 4
1,
#60000
0,
#65000
b1 !
b1 @
b100000 >
00
b110001101101111011010010110110001011011001101010101110100100000011100110110010101110100 H
b1 G
b101 F
b0 I
1,
#66000
b0 !
b0 @
b110 +
b110 3
b1101111011010010110110001011011001101100101110100100000011101010110111001110100011011110111010101100011011010000110010101100100 H
b0 G
b110 F
b10 2
#67000
b0 K
b11 2
#70000
0,
#75000
b1 !
b1 @
10
b0 /
b0 5
b101 +
b101 3
1,
#80000
0,
#85000
b0 !
b0 @
b0 >
00
b11000110110111101101001011011000101101100110101010111010010000001100011011011000110010101100001011100100110010101100100 H
b101 F
1,
#86000
b1 K
b11 J
b1 L
b100 2
#90000
0,
#95000
10
b1 /
b1 5
b11 +
b11 3
b1 -
b1 4
1,
#100000
0,
#105000
00
b110011010111010010000001110111011100100110100101110100011001010010000001101001011001110110111001101111011100100110010101100100 H
b11 F
b1 I
1,
#106000
b1001000110100 K
b111 J
b11 L
b101 2
#110000
0,
#115000
10
b1001000110100 /
b1001000110100 5
b111 +
b111 3
b11 -
b11 4
1,
#120000
0,
#125000
00
b110111010111010010000001110111011100100110100101110100011001010010000001101001011001110110111001101111011100100110010101100100 H
b111 F
b11 I
1,
#126000
0"
b1000000 +
b1000000 3
b10 -
b10 4
b11010000110111101101100011001000110100101101110011001110101101100110110001101000101110100100000010011110100111101010010 D
0C
b1000000 B
b10 E
b110 2
#127000
b1100100011010010110111001100111010110110011011000110100010111010010000001110010011001000110000101110100011000010011110100110000 H
b1000000 F
b10 I
b111 2
#128000
b1100100 +
b1100100 3
b0 -
b0 4
b1100011011011110110100101101100010110110011000100110000001100000101110100100000010011110100111101010010 D
b1100100 B
b0 E
b1000 2
#129000
b1111111111111111 K
b1000000 J
b10 L
b1001 2
#130000
0,
#135000
10
b1111111111111111 /
b1111111111111111 5
b1000000 +
b1000000 3
b10 -
b10 4
1,
#140000
0,
#145000
00
b1010101111001101 !
b1010101111001101 @
1"
b1010 +
b1010 3
b1110100011001010110010000100000011000100111100100100000010011110100111101010010001000000111011101110010011010010111010001100101 H
b1010101111001101 G
b1010 F
1,
#146000
b0 !
b0 @
b111111 +
b111111 3
b1101111011011000110010001101001011011100110011101011011001101100011001101011101001000000111011001100001011011000110100101100100 D
1C
b111111 B
b10 E
b1010 2
#147000
0"
b1000000 +
b1000000 3
b1100100011010010110111001100111010110110011011000110100010111010010000001101001011011100111011001100001011011000110100101100100 D
0C
b1000000 B
b1011 2
#148000
b101010101010101 K
b111111 J
b1100 2
#150000
0,
#155000
1"
10
b101010101010101 /
b101010101010101 5
b111111 +
b111111 3
1,
#160000
0,
#165000
b101010101010101 !
b101010101010101 @
00
b1100111010110110011011000110011010111010010000001110111011100100110100101110100011001010010111101110010011001010110000101100100 H
b101010101010101 G
b111111 F
1,
#166000
b1101 2
